\relax 
\providecommand\hyper@newdestlabel[2]{}
\@writefile{toc}{\contentsline {chapter}{\numberline {4}Arhitektura i dizajn sustava}{39}{chapter.4}\protected@file@percent }
\@writefile{lof}{\addvspace {10\p@ }}
\@writefile{lot}{\addvspace {10\p@ }}
\@writefile{lof}{\contentsline {figure}{\numberline {4.1}{\ignorespaces Arhitektura sustava}}{39}{figure.4.1}\protected@file@percent }
\newlabel{fig:promjene}{{4.1}{39}{Arhitektura sustava}{figure.4.1}{}}
\@writefile{toc}{\contentsline {section}{\numberline {4.1}Baza podataka}{41}{section.4.1}\protected@file@percent }
\@writefile{toc}{\contentsline {subsection}{\numberline {4.1.1}Opis tablica}{42}{subsection.4.1.1}\protected@file@percent }
\@writefile{toc}{\contentsline {subsection}{\numberline {4.1.2}Dijagram baze podataka}{47}{subsection.4.1.2}\protected@file@percent }
\@writefile{lof}{\contentsline {figure}{\numberline {4.2}{\ignorespaces Relacijska shema baze podataka}}{47}{figure.4.2}\protected@file@percent }
\newlabel{fig:promjene}{{4.2}{47}{Relacijska shema baze podataka}{figure.4.2}{}}
\@writefile{toc}{\contentsline {section}{\numberline {4.2}Dijagram razreda}{48}{section.4.2}\protected@file@percent }
\@writefile{lof}{\contentsline {figure}{\numberline {4.3}{\ignorespaces Dijagram razreda - paket Domain}}{49}{figure.4.3}\protected@file@percent }
\newlabel{fig:promjene}{{4.3}{49}{Dijagram razreda - paket Domain}{figure.4.3}{}}
\@writefile{lof}{\contentsline {figure}{\numberline {4.4}{\ignorespaces Dijagram razreda - paket Dao}}{50}{figure.4.4}\protected@file@percent }
\newlabel{fig:promjene}{{4.4}{50}{Dijagram razreda - paket Dao}{figure.4.4}{}}
\@writefile{lof}{\contentsline {figure}{\numberline {4.5}{\ignorespaces Dijagram razreda - paket Service bez paketa Impl}}{51}{figure.4.5}\protected@file@percent }
\newlabel{fig:promjene}{{4.5}{51}{Dijagram razreda - paket Service bez paketa Impl}{figure.4.5}{}}
\@writefile{lof}{\contentsline {figure}{\numberline {4.6}{\ignorespaces Dijagram razreda - paket Service.Impl}}{52}{figure.4.6}\protected@file@percent }
\newlabel{fig:promjene}{{4.6}{52}{Dijagram razreda - paket Service.Impl}{figure.4.6}{}}
\@writefile{lof}{\contentsline {figure}{\numberline {4.7}{\ignorespaces Razred ProjektApplication}}{53}{figure.4.7}\protected@file@percent }
\newlabel{fig:promjene}{{4.7}{53}{Razred ProjektApplication}{figure.4.7}{}}
\@writefile{lof}{\contentsline {figure}{\numberline {4.8}{\ignorespaces Dijagram razreda - paket Rest}}{54}{figure.4.8}\protected@file@percent }
\newlabel{fig:promjene}{{4.8}{54}{Dijagram razreda - paket Rest}{figure.4.8}{}}
\@writefile{lof}{\contentsline {figure}{\numberline {4.9}{\ignorespaces Svi Controller razredi povezani s paketom Service}}{55}{figure.4.9}\protected@file@percent }
\newlabel{fig:promjene}{{4.9}{55}{Svi Controller razredi povezani s paketom Service}{figure.4.9}{}}
\@writefile{lof}{\contentsline {figure}{\numberline {4.10}{\ignorespaces Svi razredi povezani s User Controller}}{56}{figure.4.10}\protected@file@percent }
\newlabel{fig:promjene}{{4.10}{56}{Svi razredi povezani s User Controller}{figure.4.10}{}}
\@writefile{toc}{\contentsline {section}{\numberline {4.3}Dijagram stanja}{57}{section.4.3}\protected@file@percent }
\@writefile{lof}{\contentsline {figure}{\numberline {4.11}{\ignorespaces Dijagram stanja}}{58}{figure.4.11}\protected@file@percent }
\newlabel{fig:promjene}{{4.11}{58}{Dijagram stanja}{figure.4.11}{}}
\@writefile{toc}{\contentsline {section}{\numberline {4.4}Dijagram aktivnosti}{59}{section.4.4}\protected@file@percent }
\@writefile{lof}{\contentsline {figure}{\numberline {4.12}{\ignorespaces Dijagram aktivnosti}}{59}{figure.4.12}\protected@file@percent }
\newlabel{fig:promjene}{{4.12}{59}{Dijagram aktivnosti}{figure.4.12}{}}
\@writefile{toc}{\contentsline {section}{\numberline {4.5}Dijagram komponenti}{60}{section.4.5}\protected@file@percent }
\@writefile{lof}{\contentsline {figure}{\numberline {4.13}{\ignorespaces Dijagram komponenti}}{60}{figure.4.13}\protected@file@percent }
\newlabel{fig:promjene}{{4.13}{60}{Dijagram komponenti}{figure.4.13}{}}
\@setckpt{Arhitektura}{
\setcounter{page}{61}
\setcounter{equation}{0}
\setcounter{enumi}{5}
\setcounter{enumii}{9}
\setcounter{enumiii}{0}
\setcounter{enumiv}{0}
\setcounter{footnote}{0}
\setcounter{mpfootnote}{0}
\setcounter{part}{0}
\setcounter{chapter}{4}
\setcounter{section}{5}
\setcounter{subsection}{0}
\setcounter{subsubsection}{0}
\setcounter{paragraph}{0}
\setcounter{subparagraph}{0}
\setcounter{figure}{13}
\setcounter{table}{0}
\setcounter{parentequation}{0}
\setcounter{Item}{235}
\setcounter{Hfootnote}{0}
\setcounter{bookmark@seq@number}{15}
\setcounter{float@type}{8}
\setcounter{lstnumber}{1}
\setcounter{section@level}{0}
\setcounter{lstlisting}{0}
}
