\relax 
\providecommand\hyper@newdestlabel[2]{}
\@writefile{toc}{\contentsline {chapter}{Dodatak: Prikaz aktivnosti grupe}{103}{chapter*.5}\protected@file@percent }
\@writefile{lot}{\contentsline {table}{\numberline {0}{}}{108}{Item.356}\protected@file@percent }
\@writefile{lof}{\contentsline {figure}{\numberline {6.1}{\ignorespaces 1. dio dijagrama pregleda promjena}}{110}{figure.6.1}\protected@file@percent }
\newlabel{fig:promjene}{{6.1}{110}{1. dio dijagrama pregleda promjena}{figure.6.1}{}}
\@writefile{lof}{\contentsline {figure}{\numberline {6.2}{\ignorespaces 2. dio dijagrama pregleda promjena}}{111}{figure.6.2}\protected@file@percent }
\newlabel{fig:promjene}{{6.2}{111}{2. dio dijagrama pregleda promjena}{figure.6.2}{}}
\@setckpt{Dodatak}{
\setcounter{page}{112}
\setcounter{equation}{0}
\setcounter{enumi}{23}
\setcounter{enumii}{9}
\setcounter{enumiii}{0}
\setcounter{enumiv}{0}
\setcounter{footnote}{0}
\setcounter{mpfootnote}{0}
\setcounter{part}{0}
\setcounter{chapter}{6}
\setcounter{section}{0}
\setcounter{subsection}{0}
\setcounter{subsubsection}{0}
\setcounter{paragraph}{0}
\setcounter{subparagraph}{0}
\setcounter{figure}{2}
\setcounter{table}{0}
\setcounter{parentequation}{0}
\setcounter{Item}{356}
\setcounter{Hfootnote}{0}
\setcounter{bookmark@seq@number}{26}
\setcounter{float@type}{8}
\setcounter{lstnumber}{5}
\setcounter{section@level}{0}
\setcounter{lstlisting}{0}
}
