\relax 
\providecommand\hyper@newdestlabel[2]{}
\@writefile{toc}{\contentsline {chapter}{\numberline {5}Implementacija i korisničko sučelje}{61}{chapter.5}\protected@file@percent }
\@writefile{lof}{\addvspace {10\p@ }}
\@writefile{lot}{\addvspace {10\p@ }}
\@writefile{toc}{\contentsline {section}{\numberline {5.1}Korištene tehnologije i alati}{61}{section.5.1}\protected@file@percent }
\@writefile{toc}{\contentsline {section}{\numberline {5.2}Ispitivanje programskog rješenja}{63}{section.5.2}\protected@file@percent }
\@writefile{toc}{\contentsline {subsection}{\numberline {5.2.1}Ispitivanje komponenti}{63}{subsection.5.2.1}\protected@file@percent }
\@writefile{lof}{\contentsline {figure}{\numberline {5.1}{\ignorespaces Unit testovi - svi testovi prolaze}}{63}{figure.5.1}\protected@file@percent }
\newlabel{fig:promjene}{{5.1}{63}{Unit testovi - svi testovi prolaze}{figure.5.1}{}}
\@writefile{lof}{\contentsline {figure}{\numberline {5.2}{\ignorespaces Unit test - Registracija novog korisnika s ulicom koja ne postoji}}{64}{figure.5.2}\protected@file@percent }
\newlabel{fig:promjene}{{5.2}{64}{Unit test - Registracija novog korisnika s ulicom koja ne postoji}{figure.5.2}{}}
\@writefile{lof}{\contentsline {figure}{\numberline {5.3}{\ignorespaces Unit test - Registracija novog korisnika s e-mailom koji je već u upotrebi}}{65}{figure.5.3}\protected@file@percent }
\newlabel{fig:promjene}{{5.3}{65}{Unit test - Registracija novog korisnika s e-mailom koji je već u upotrebi}{figure.5.3}{}}
\@writefile{lof}{\contentsline {figure}{\numberline {5.4}{\ignorespaces Unit test - Registracija novog korisnika s e-mailom čiji je korisnik trajno izbrisan}}{66}{figure.5.4}\protected@file@percent }
\newlabel{fig:promjene}{{5.4}{66}{Unit test - Registracija novog korisnika s e-mailom čiji je korisnik trajno izbrisan}{figure.5.4}{}}
\@writefile{lof}{\contentsline {figure}{\numberline {5.5}{\ignorespaces Unit test - Prijava korisnika s točnim podatcima}}{68}{figure.5.5}\protected@file@percent }
\newlabel{fig:promjene}{{5.5}{68}{Unit test - Prijava korisnika s točnim podatcima}{figure.5.5}{}}
\@writefile{lof}{\contentsline {figure}{\numberline {5.6}{\ignorespaces Unit test - Prijava korisnika s krivim podatcima}}{68}{figure.5.6}\protected@file@percent }
\newlabel{fig:promjene}{{5.6}{68}{Unit test - Prijava korisnika s krivim podatcima}{figure.5.6}{}}
\@writefile{lof}{\contentsline {figure}{\numberline {5.7}{\ignorespaces Unit test - Prijava korisnika koji je privremeno blokiran}}{69}{figure.5.7}\protected@file@percent }
\newlabel{fig:promjene}{{5.7}{69}{Unit test - Prijava korisnika koji je privremeno blokiran}{figure.5.7}{}}
\@writefile{toc}{\contentsline {subsection}{\numberline {5.2.2}Ispitivanje sustava}{70}{subsection.5.2.2}\protected@file@percent }
\@writefile{lof}{\contentsline {figure}{\numberline {5.8}{\ignorespaces Selenium testovi - svi testovi prolaze}}{70}{figure.5.8}\protected@file@percent }
\newlabel{fig:promjene}{{5.8}{70}{Selenium testovi - svi testovi prolaze}{figure.5.8}{}}
\@writefile{lof}{\contentsline {figure}{\numberline {5.9}{\ignorespaces Selenium test - Stanovnici iste četvrti vide iste teme na Forumu}}{73}{figure.5.9}\protected@file@percent }
\newlabel{fig:promjene}{{5.9}{73}{Selenium test - Stanovnici iste četvrti vide iste teme na Forumu}{figure.5.9}{}}
\@writefile{lof}{\contentsline {figure}{\numberline {5.10}{\ignorespaces Selenium test - Stanovnici drugačijih četvrti ne vide iste teme na Forumu}}{75}{figure.5.10}\protected@file@percent }
\newlabel{fig:promjene}{{5.10}{75}{Selenium test - Stanovnici drugačijih četvrti ne vide iste teme na Forumu}{figure.5.10}{}}
\@writefile{lof}{\contentsline {figure}{\numberline {5.11}{\ignorespaces Selenium test - Moderatori mogu brisati događanje drugih stanovnika u četvrti}}{78}{figure.5.11}\protected@file@percent }
\newlabel{fig:promjene}{{5.11}{78}{Selenium test - Moderatori mogu brisati događanje drugih stanovnika u četvrti}{figure.5.11}{}}
\@writefile{lof}{\contentsline {figure}{\numberline {5.12}{\ignorespaces Selenium test - Administratori mogu odbijati zahtjeve uloga od stanovnika}}{80}{figure.5.12}\protected@file@percent }
\newlabel{fig:promjene}{{5.12}{80}{Selenium test - Administratori mogu odbijati zahtjeve uloga od stanovnika}{figure.5.12}{}}
\@writefile{lof}{\contentsline {figure}{\numberline {5.13}{\ignorespaces Selenium test - Vijećnik dodaje izvješće i stanovnik iste četvrti vidi to izvješće}}{84}{figure.5.13}\protected@file@percent }
\newlabel{fig:promjene}{{5.13}{84}{Selenium test - Vijećnik dodaje izvješće i stanovnik iste četvrti vidi to izvješće}{figure.5.13}{}}
\@writefile{toc}{\contentsline {section}{\numberline {5.3}Dijagram razmještaja}{85}{section.5.3}\protected@file@percent }
\@writefile{lof}{\contentsline {figure}{\numberline {5.14}{\ignorespaces Dijagram razmještaja}}{85}{figure.5.14}\protected@file@percent }
\newlabel{fig:promjene}{{5.14}{85}{Dijagram razmještaja}{figure.5.14}{}}
\@writefile{toc}{\contentsline {section}{\numberline {5.4}Upute za puštanje u pogon}{86}{section.5.4}\protected@file@percent }
\@writefile{lof}{\contentsline {figure}{\numberline {5.15}{\ignorespaces Aplikacije na Heroku}}{86}{figure.5.15}\protected@file@percent }
\newlabel{fig:promjene}{{5.15}{86}{Aplikacije na Heroku}{figure.5.15}{}}
\@writefile{lof}{\contentsline {figure}{\numberline {5.16}{\ignorespaces Heroku add-ons}}{92}{figure.5.16}\protected@file@percent }
\newlabel{fig:promjene}{{5.16}{92}{Heroku add-ons}{figure.5.16}{}}
\@writefile{lof}{\contentsline {figure}{\numberline {5.17}{\ignorespaces Heroku Postgres podatci}}{93}{figure.5.17}\protected@file@percent }
\newlabel{fig:promjene}{{5.17}{93}{Heroku Postgres podatci}{figure.5.17}{}}
\@writefile{lof}{\contentsline {figure}{\numberline {5.18}{\ignorespaces Podatci baze podataka}}{95}{figure.5.18}\protected@file@percent }
\newlabel{fig:promjene}{{5.18}{95}{Podatci baze podataka}{figure.5.18}{}}
\@writefile{lof}{\contentsline {figure}{\numberline {5.19}{\ignorespaces Povezivanje backenda s GitHub-om}}{96}{figure.5.19}\protected@file@percent }
\newlabel{fig:promjene}{{5.19}{96}{Povezivanje backenda s GitHub-om}{figure.5.19}{}}
\@writefile{lof}{\contentsline {figure}{\numberline {5.20}{\ignorespaces Web-aplikacija MojKvart}}{97}{figure.5.20}\protected@file@percent }
\newlabel{fig:promjene}{{5.20}{97}{Web-aplikacija MojKvart}{figure.5.20}{}}
\@setckpt{Implementacija}{
\setcounter{page}{98}
\setcounter{equation}{0}
\setcounter{enumi}{12}
\setcounter{enumii}{9}
\setcounter{enumiii}{0}
\setcounter{enumiv}{0}
\setcounter{footnote}{0}
\setcounter{mpfootnote}{0}
\setcounter{part}{0}
\setcounter{chapter}{5}
\setcounter{section}{4}
\setcounter{subsection}{0}
\setcounter{subsubsection}{0}
\setcounter{paragraph}{0}
\setcounter{subparagraph}{0}
\setcounter{figure}{20}
\setcounter{table}{0}
\setcounter{parentequation}{0}
\setcounter{Item}{327}
\setcounter{Hfootnote}{0}
\setcounter{bookmark@seq@number}{22}
\setcounter{float@type}{8}
\setcounter{lstnumber}{5}
\setcounter{section@level}{0}
\setcounter{lstlisting}{0}
}
