\relax 
\providecommand\hyper@newdestlabel[2]{}
\@writefile{toc}{\contentsline {chapter}{\numberline {2}Opis projektnog zadatka}{7}{chapter.2}\protected@file@percent }
\@writefile{lof}{\addvspace {10\p@ }}
\@writefile{lot}{\addvspace {10\p@ }}
\@writefile{lof}{\contentsline {figure}{\numberline {2.1}{\ignorespaces Primjer foruma}}{9}{figure.2.1}\protected@file@percent }
\newlabel{fig:promjene}{{2.1}{9}{Primjer foruma}{figure.2.1}{}}
\@writefile{lof}{\contentsline {figure}{\numberline {2.2}{\ignorespaces Primjer događanja}}{9}{figure.2.2}\protected@file@percent }
\newlabel{fig:promjene}{{2.2}{9}{Primjer događanja}{figure.2.2}{}}
\@writefile{lof}{\contentsline {figure}{\numberline {2.3}{\ignorespaces Primjer vijeća četvrti}}{10}{figure.2.3}\protected@file@percent }
\newlabel{fig:promjene}{{2.3}{10}{Primjer vijeća četvrti}{figure.2.3}{}}
\@setckpt{Opis_projektnog_zadatka}{
\setcounter{page}{11}
\setcounter{equation}{0}
\setcounter{enumi}{0}
\setcounter{enumii}{0}
\setcounter{enumiii}{0}
\setcounter{enumiv}{0}
\setcounter{footnote}{0}
\setcounter{mpfootnote}{0}
\setcounter{part}{0}
\setcounter{chapter}{2}
\setcounter{section}{0}
\setcounter{subsection}{0}
\setcounter{subsubsection}{0}
\setcounter{paragraph}{0}
\setcounter{subparagraph}{0}
\setcounter{figure}{3}
\setcounter{table}{0}
\setcounter{parentequation}{0}
\setcounter{Item}{0}
\setcounter{Hfootnote}{0}
\setcounter{bookmark@seq@number}{2}
\setcounter{float@type}{8}
\setcounter{lstnumber}{1}
\setcounter{section@level}{0}
\setcounter{lstlisting}{0}
}
