\babel@toc {croatian}{}\relax 
\contentsline {chapter}{\numberline {1}Dnevnik promjena dokumentacije}{3}{chapter.1}%
\contentsline {chapter}{\numberline {2}Opis projektnog zadatka}{7}{chapter.2}%
\contentsline {chapter}{\numberline {3}Specifikacija programske potpore}{11}{chapter.3}%
\contentsline {section}{\numberline {3.1}Funkcionalni zahtjevi}{11}{section.3.1}%
\contentsline {subsection}{\numberline {3.1.1}Obrasci uporabe}{13}{subsection.3.1.1}%
\contentsline {subsubsection}{Dijagrami obrazaca uporabe}{28}{subsubsection*.2}%
\contentsline {subsection}{\numberline {3.1.2}Sekvencijski dijagrami}{31}{subsection.3.1.2}%
\contentsline {section}{\numberline {3.2}Ostali zahtjevi}{38}{section.3.2}%
\contentsline {chapter}{\numberline {4}Arhitektura i dizajn sustava}{39}{chapter.4}%
\contentsline {section}{\numberline {4.1}Baza podataka}{41}{section.4.1}%
\contentsline {subsection}{\numberline {4.1.1}Opis tablica}{42}{subsection.4.1.1}%
\contentsline {subsection}{\numberline {4.1.2}Dijagram baze podataka}{47}{subsection.4.1.2}%
\contentsline {section}{\numberline {4.2}Dijagram razreda}{48}{section.4.2}%
\contentsline {section}{\numberline {4.3}Dijagram stanja}{57}{section.4.3}%
\contentsline {section}{\numberline {4.4}Dijagram aktivnosti}{59}{section.4.4}%
\contentsline {section}{\numberline {4.5}Dijagram komponenti}{60}{section.4.5}%
\contentsline {chapter}{\numberline {5}Implementacija i korisničko sučelje}{61}{chapter.5}%
\contentsline {section}{\numberline {5.1}Korištene tehnologije i alati}{61}{section.5.1}%
\contentsline {section}{\numberline {5.2}Ispitivanje programskog rješenja}{63}{section.5.2}%
\contentsline {subsection}{\numberline {5.2.1}Ispitivanje komponenti}{63}{subsection.5.2.1}%
\contentsline {subsection}{\numberline {5.2.2}Ispitivanje sustava}{70}{subsection.5.2.2}%
\contentsline {section}{\numberline {5.3}Dijagram razmještaja}{85}{section.5.3}%
\contentsline {section}{\numberline {5.4}Upute za puštanje u pogon}{86}{section.5.4}%
\contentsline {chapter}{\numberline {6}Zaključak i budući rad}{98}{chapter.6}%
\contentsline {chapter}{Popis literature}{100}{chapter*.3}%
\contentsline {chapter}{Indeks slika i dijagrama}{102}{chapter*.4}%
\contentsline {chapter}{Dodatak: Prikaz aktivnosti grupe}{103}{chapter*.5}%
