\babel@toc {croatian}{}\relax 
\addvspace {10\p@ }
\addvspace {10\p@ }
\contentsline {figure}{\numberline {2.1}{\ignorespaces Primjer foruma}}{9}{figure.2.1}%
\contentsline {figure}{\numberline {2.2}{\ignorespaces Primjer događanja}}{9}{figure.2.2}%
\contentsline {figure}{\numberline {2.3}{\ignorespaces Primjer vijeća četvrti}}{10}{figure.2.3}%
\addvspace {10\p@ }
\contentsline {figure}{\numberline {3.1}{\ignorespaces Dijagram obrasca uporabe, funkcionalnost neregistriranog korisnika}}{28}{figure.3.1}%
\contentsline {figure}{\numberline {3.2}{\ignorespaces Dijagram obrasca uporabe, funkcionalnost stanovnika četvrti}}{28}{figure.3.2}%
\contentsline {figure}{\numberline {3.3}{\ignorespaces Dijagram obrasca uporabe, funkcionalnost moderatora}}{29}{figure.3.3}%
\contentsline {figure}{\numberline {3.4}{\ignorespaces Dijagram obrasca uporabe, funkcionalnost vijećnika}}{29}{figure.3.4}%
\contentsline {figure}{\numberline {3.5}{\ignorespaces Dijagram obrasca uporabe, funkcionalnost administratora}}{30}{figure.3.5}%
\contentsline {figure}{\numberline {3.6}{\ignorespaces Sekvencijski dijagram za UC2}}{31}{figure.3.6}%
\contentsline {figure}{\numberline {3.7}{\ignorespaces Sekvencijski dijagram za UC3 i UC4}}{33}{figure.3.7}%
\contentsline {figure}{\numberline {3.8}{\ignorespaces Sekvencijski dijagram za UC13 i UC 14}}{35}{figure.3.8}%
\contentsline {figure}{\numberline {3.9}{\ignorespaces Sekvencijski dijagram za UC10, UC24 i UC25}}{37}{figure.3.9}%
\addvspace {10\p@ }
\contentsline {figure}{\numberline {4.1}{\ignorespaces Arhitektura sustava}}{39}{figure.4.1}%
\contentsline {figure}{\numberline {4.2}{\ignorespaces Relacijska shema baze podataka}}{47}{figure.4.2}%
\contentsline {figure}{\numberline {4.3}{\ignorespaces Dijagram razreda - paket Domain}}{49}{figure.4.3}%
\contentsline {figure}{\numberline {4.4}{\ignorespaces Dijagram razreda - paket Dao}}{50}{figure.4.4}%
\contentsline {figure}{\numberline {4.5}{\ignorespaces Dijagram razreda - paket Service bez paketa Impl}}{51}{figure.4.5}%
\contentsline {figure}{\numberline {4.6}{\ignorespaces Dijagram razreda - paket Service.Impl}}{52}{figure.4.6}%
\contentsline {figure}{\numberline {4.7}{\ignorespaces Razred ProjektApplication}}{53}{figure.4.7}%
\contentsline {figure}{\numberline {4.8}{\ignorespaces Dijagram razreda - paket Rest}}{54}{figure.4.8}%
\contentsline {figure}{\numberline {4.9}{\ignorespaces Svi Controller razredi povezani s paketom Service}}{55}{figure.4.9}%
\contentsline {figure}{\numberline {4.10}{\ignorespaces Svi razredi povezani s User Controller}}{56}{figure.4.10}%
\contentsline {figure}{\numberline {4.11}{\ignorespaces Dijagram stanja}}{58}{figure.4.11}%
\contentsline {figure}{\numberline {4.12}{\ignorespaces Dijagram aktivnosti}}{59}{figure.4.12}%
\contentsline {figure}{\numberline {4.13}{\ignorespaces Dijagram komponenti}}{60}{figure.4.13}%
\addvspace {10\p@ }
\contentsline {figure}{\numberline {5.1}{\ignorespaces Unit testovi - svi testovi prolaze}}{63}{figure.5.1}%
\contentsline {figure}{\numberline {5.2}{\ignorespaces Unit test - Registracija novog korisnika s ulicom koja ne postoji}}{64}{figure.5.2}%
\contentsline {figure}{\numberline {5.3}{\ignorespaces Unit test - Registracija novog korisnika s e-mailom koji je već u upotrebi}}{65}{figure.5.3}%
\contentsline {figure}{\numberline {5.4}{\ignorespaces Unit test - Registracija novog korisnika s e-mailom čiji je korisnik trajno izbrisan}}{66}{figure.5.4}%
\contentsline {figure}{\numberline {5.5}{\ignorespaces Unit test - Prijava korisnika s točnim podatcima}}{68}{figure.5.5}%
\contentsline {figure}{\numberline {5.6}{\ignorespaces Unit test - Prijava korisnika s krivim podatcima}}{68}{figure.5.6}%
\contentsline {figure}{\numberline {5.7}{\ignorespaces Unit test - Prijava korisnika koji je privremeno blokiran}}{69}{figure.5.7}%
\contentsline {figure}{\numberline {5.8}{\ignorespaces Selenium testovi - svi testovi prolaze}}{70}{figure.5.8}%
\contentsline {figure}{\numberline {5.9}{\ignorespaces Selenium test - Stanovnici iste četvrti vide iste teme na Forumu}}{73}{figure.5.9}%
\contentsline {figure}{\numberline {5.10}{\ignorespaces Selenium test - Stanovnici drugačijih četvrti ne vide iste teme na Forumu}}{75}{figure.5.10}%
\contentsline {figure}{\numberline {5.11}{\ignorespaces Selenium test - Moderatori mogu brisati događanje drugih stanovnika u četvrti}}{78}{figure.5.11}%
\contentsline {figure}{\numberline {5.12}{\ignorespaces Selenium test - Administratori mogu odbijati zahtjeve uloga od stanovnika}}{80}{figure.5.12}%
\contentsline {figure}{\numberline {5.13}{\ignorespaces Selenium test - Vijećnik dodaje izvješće i stanovnik iste četvrti vidi to izvješće}}{84}{figure.5.13}%
\contentsline {figure}{\numberline {5.14}{\ignorespaces Dijagram razmještaja}}{85}{figure.5.14}%
\contentsline {figure}{\numberline {5.15}{\ignorespaces Aplikacije na Heroku}}{86}{figure.5.15}%
\contentsline {figure}{\numberline {5.16}{\ignorespaces Heroku add-ons}}{92}{figure.5.16}%
\contentsline {figure}{\numberline {5.17}{\ignorespaces Heroku Postgres podatci}}{93}{figure.5.17}%
\contentsline {figure}{\numberline {5.18}{\ignorespaces Podatci baze podataka}}{95}{figure.5.18}%
\contentsline {figure}{\numberline {5.19}{\ignorespaces Povezivanje backenda s GitHub-om}}{96}{figure.5.19}%
\contentsline {figure}{\numberline {5.20}{\ignorespaces Web-aplikacija MojKvart}}{97}{figure.5.20}%
\addvspace {10\p@ }
\contentsline {figure}{\numberline {6.1}{\ignorespaces 1. dio dijagrama pregleda promjena}}{110}{figure.6.1}%
\contentsline {figure}{\numberline {6.2}{\ignorespaces 2. dio dijagrama pregleda promjena}}{111}{figure.6.2}%
