\relax 
\providecommand\hyper@newdestlabel[2]{}
\@writefile{toc}{\contentsline {chapter}{\numberline {3}Specifikacija programske potpore}{11}{chapter.3}\protected@file@percent }
\@writefile{lof}{\addvspace {10\p@ }}
\@writefile{lot}{\addvspace {10\p@ }}
\@writefile{toc}{\contentsline {section}{\numberline {3.1}Funkcionalni zahtjevi}{11}{section.3.1}\protected@file@percent }
\@writefile{toc}{\contentsline {subsection}{\numberline {3.1.1}Obrasci uporabe}{13}{subsection.3.1.1}\protected@file@percent }
\@writefile{toc}{\contentsline {subsubsection}{Dijagrami obrazaca uporabe}{28}{subsubsection*.2}\protected@file@percent }
\@writefile{lof}{\contentsline {figure}{\numberline {3.1}{\ignorespaces Dijagram obrasca uporabe, funkcionalnost neregistriranog korisnika}}{28}{figure.3.1}\protected@file@percent }
\newlabel{fig:promjene}{{3.1}{28}{Dijagram obrasca uporabe, funkcionalnost neregistriranog korisnika}{figure.3.1}{}}
\@writefile{lof}{\contentsline {figure}{\numberline {3.2}{\ignorespaces Dijagram obrasca uporabe, funkcionalnost stanovnika četvrti}}{28}{figure.3.2}\protected@file@percent }
\newlabel{fig:promjene}{{3.2}{28}{Dijagram obrasca uporabe, funkcionalnost stanovnika četvrti}{figure.3.2}{}}
\@writefile{lof}{\contentsline {figure}{\numberline {3.3}{\ignorespaces Dijagram obrasca uporabe, funkcionalnost moderatora}}{29}{figure.3.3}\protected@file@percent }
\newlabel{fig:promjene}{{3.3}{29}{Dijagram obrasca uporabe, funkcionalnost moderatora}{figure.3.3}{}}
\@writefile{lof}{\contentsline {figure}{\numberline {3.4}{\ignorespaces Dijagram obrasca uporabe, funkcionalnost vijećnika}}{29}{figure.3.4}\protected@file@percent }
\newlabel{fig:promjene}{{3.4}{29}{Dijagram obrasca uporabe, funkcionalnost vijećnika}{figure.3.4}{}}
\@writefile{lof}{\contentsline {figure}{\numberline {3.5}{\ignorespaces Dijagram obrasca uporabe, funkcionalnost administratora}}{30}{figure.3.5}\protected@file@percent }
\newlabel{fig:promjene}{{3.5}{30}{Dijagram obrasca uporabe, funkcionalnost administratora}{figure.3.5}{}}
\@writefile{toc}{\contentsline {subsection}{\numberline {3.1.2}Sekvencijski dijagrami}{31}{subsection.3.1.2}\protected@file@percent }
\@writefile{lof}{\contentsline {figure}{\numberline {3.6}{\ignorespaces Sekvencijski dijagram za UC2}}{31}{figure.3.6}\protected@file@percent }
\newlabel{fig:promjene}{{3.6}{31}{Sekvencijski dijagram za UC2}{figure.3.6}{}}
\@writefile{lof}{\contentsline {figure}{\numberline {3.7}{\ignorespaces Sekvencijski dijagram za UC3 i UC4}}{33}{figure.3.7}\protected@file@percent }
\newlabel{fig:promjene}{{3.7}{33}{Sekvencijski dijagram za UC3 i UC4}{figure.3.7}{}}
\@writefile{lof}{\contentsline {figure}{\numberline {3.8}{\ignorespaces Sekvencijski dijagram za UC13 i UC 14}}{35}{figure.3.8}\protected@file@percent }
\newlabel{fig:promjene}{{3.8}{35}{Sekvencijski dijagram za UC13 i UC 14}{figure.3.8}{}}
\@writefile{lof}{\contentsline {figure}{\numberline {3.9}{\ignorespaces Sekvencijski dijagram za UC10, UC24 i UC25}}{37}{figure.3.9}\protected@file@percent }
\newlabel{fig:promjene}{{3.9}{37}{Sekvencijski dijagram za UC10, UC24 i UC25}{figure.3.9}{}}
\@writefile{toc}{\contentsline {section}{\numberline {3.2}Ostali zahtjevi}{38}{section.3.2}\protected@file@percent }
\@setckpt{Specifikacija_programske_potpore}{
\setcounter{page}{39}
\setcounter{equation}{0}
\setcounter{enumi}{5}
\setcounter{enumii}{9}
\setcounter{enumiii}{0}
\setcounter{enumiv}{0}
\setcounter{footnote}{0}
\setcounter{mpfootnote}{0}
\setcounter{part}{0}
\setcounter{chapter}{3}
\setcounter{section}{2}
\setcounter{subsection}{0}
\setcounter{subsubsection}{0}
\setcounter{paragraph}{0}
\setcounter{subparagraph}{0}
\setcounter{figure}{9}
\setcounter{table}{0}
\setcounter{parentequation}{0}
\setcounter{Item}{235}
\setcounter{Hfootnote}{0}
\setcounter{bookmark@seq@number}{7}
\setcounter{float@type}{8}
\setcounter{lstnumber}{1}
\setcounter{section@level}{0}
\setcounter{lstlisting}{0}
}
