\relax 
\providecommand\hyper@newdestlabel[2]{}
\@writefile{toc}{\contentsline {chapter}{\numberline {6}Zaključak i budući rad}{98}{chapter.6}\protected@file@percent }
\@writefile{lof}{\addvspace {10\p@ }}
\@writefile{lot}{\addvspace {10\p@ }}
\@setckpt{Zakljucak}{
\setcounter{page}{100}
\setcounter{equation}{0}
\setcounter{enumi}{12}
\setcounter{enumii}{9}
\setcounter{enumiii}{0}
\setcounter{enumiv}{0}
\setcounter{footnote}{0}
\setcounter{mpfootnote}{0}
\setcounter{part}{0}
\setcounter{chapter}{6}
\setcounter{section}{0}
\setcounter{subsection}{0}
\setcounter{subsubsection}{0}
\setcounter{paragraph}{0}
\setcounter{subparagraph}{0}
\setcounter{figure}{0}
\setcounter{table}{0}
\setcounter{parentequation}{0}
\setcounter{Item}{327}
\setcounter{Hfootnote}{0}
\setcounter{bookmark@seq@number}{23}
\setcounter{float@type}{8}
\setcounter{lstnumber}{5}
\setcounter{section@level}{0}
\setcounter{lstlisting}{0}
}
