{
  "project": {
    "version": "1.0.0-beta.28.3",
    "name": "moj-kvart"
  },
  "apps": [
    {
      "root": "src",
      "outDir": "dist",
      "assets": [
        "assets",
		"Add-topbtn.js",
		"admin.html",
		"admin.js",
		"checkRequests.html",
		"checkRequests.js",
        "favicon.ico",
		"background.jpg",
		"Forum.html",
		"forum.js",
		"ForumList.html",
		"ForumTopic.html",
		"MojKvartLogo.png",
		"MojKvartLogo_nobg.png",
		"neighborhood.js",
		"neighborhoodEdit.html",
		"neighborhoodList.html",
		"neighborhoods.html",
		"Profil.html",
		"profil.js",
		"users.html",
		"users.js",
		"Vijece.js",
		"Login.html",
		"Vijece.html",
		"dogadaj.html",
		"dogadaj.js",
		"Add-topbtn.js",
		"angularmin.js",
		"buttonFunction.js",
		"logoutbtn.js",
		"darkmodebtn.js",
		"styles.css",
		"angular-route.js"
      ],
      "index": "index.html",
      "main": "main.ts",
      "polyfills": "polyfills.ts",
      "test": "test.ts",
      "tsconfig": "tsconfig.json",
      "prefix": "app",
      "styles": [
        "styles.css"
      ],
      "scripts": [
		"Add-topbtn.js",
		"angularmin.js",
		"buttonFunction.js",
		"logoutbtn.js",
		"darkmodebtn.js"
	  ],
      "environments": {
        "source": "environments/environment.ts",
        "dev": "environments/environment.ts",
        "prod": "environments/environment.prod.ts"
      }
    }
  ],
  "e2e": {
    "protractor": {
      "config": "./protractor.conf.js"
    }
  },
  "lint": [
    {
      "files": "src/**/*.ts",
      "project": "src/tsconfig.json"
    },
    {
      "files": "e2e/**/*.ts",
      "project": "e2e/tsconfig.json"
    }
  ],
  "test": {
    "karma": {
      "config": "./karma.conf.js"
    }
  },
  "defaults": {
    "styleExt": "css",
    "prefixInterfaces": false,
    "inline": {
      "style": false,
      "template": false
    },
    "spec": {
      "class": false,
      "component": true,
      "directive": true,
      "module": false,
      "pipe": true,
      "service": true
    }
  }
}
